\relax 
\providecommand\hyper@newdestlabel[2]{}
\providecommand\HyperFirstAtBeginDocument{\AtBeginDocument}
\HyperFirstAtBeginDocument{\ifx\hyper@anchor\@undefined
\global\let\oldcontentsline\contentsline
\gdef\contentsline#1#2#3#4{\oldcontentsline{#1}{#2}{#3}}
\global\let\oldnewlabel\newlabel
\gdef\newlabel#1#2{\newlabelxx{#1}#2}
\gdef\newlabelxx#1#2#3#4#5#6{\oldnewlabel{#1}{{#2}{#3}}}
\AtEndDocument{\ifx\hyper@anchor\@undefined
\let\contentsline\oldcontentsline
\let\newlabel\oldnewlabel
\fi}
\fi}
\global\let\hyper@last\relax 
\gdef\HyperFirstAtBeginDocument#1{#1}
\providecommand\HyField@AuxAddToFields[1]{}
\providecommand\HyField@AuxAddToCoFields[2]{}
\select@language{english}
\@writefile{toc}{\select@language{english}}
\@writefile{lof}{\select@language{english}}
\@writefile{lot}{\select@language{english}}
\@writefile{toc}{\contentsline {chapter}{Abstract}{1}{section*.1}}
\@input{chapters/introduction.aux}
\@input{chapters/chapter1.aux}
\@input{chapters/chapter2.aux}
\@input{chapters/chapter3.aux}
\@input{chapters/conclusion.aux}
\@input{chapters/appendixA.aux}
\bibstyle{amsalpha}
\citation{*}
\bibdata{endmatter/bibliography}
\bibcite{Dummit1}{DF04}
\bibcite{Fesenko1}{FV02}
\bibcite{Lang1}{Lan02}
\bibcite{Niederreiter1}{Nie88}
\bibcite{Niederreiter2}{NX96}
\bibcite{Rosen1}{Ros02}
\bibcite{Stichtenoth1}{Sti09}
\@writefile{toc}{\contentsline {chapter}{References}{19}{chapter*.5}}
\@input{endmatter/colophon.aux}
