\relax 
\providecommand\hyper@newdestlabel[2]{}
\@writefile{toc}{\contentsline {chapter}{Appendix \numberline {A}Magma Code}{46}{Appendix.1.A}}
\@writefile{lof}{\addvspace {10\p@ }}
\@writefile{lot}{\addvspace {10\p@ }}
\newlabel{AppendixA}{{A}{46}{Magma Code}{Appendix.1.A}{}}
\@writefile{toc}{\contentsline {section}{\numberline {A.1}Construction of Low-Discrepancy Point Sets}{46}{section.1.A.1}}
\@writefile{toc}{\contentsline {section}{\numberline {A.2}Calculation of the Discrepancy}{48}{section.1.A.2}}
\@setckpt{chapters/appendixA}{
\setcounter{page}{51}
\setcounter{equation}{0}
\setcounter{enumi}{4}
\setcounter{enumii}{0}
\setcounter{enumiii}{0}
\setcounter{enumiv}{0}
\setcounter{footnote}{0}
\setcounter{mpfootnote}{0}
\setcounter{part}{0}
\setcounter{chapter}{1}
\setcounter{section}{2}
\setcounter{subsection}{0}
\setcounter{subsubsection}{0}
\setcounter{paragraph}{0}
\setcounter{subparagraph}{0}
\setcounter{figure}{0}
\setcounter{table}{0}
\setcounter{DefaultLines}{2}
\setcounter{DefaultDepth}{0}
\setcounter{L@lines}{0}
\setcounter{L@depth}{0}
\setcounter{Item}{24}
\setcounter{Hfootnote}{0}
\setcounter{bookmark@seq@number}{26}
\setcounter{parentequation}{0}
\setcounter{ContinuedFloat}{0}
\setcounter{lofdepth}{1}
\setcounter{lotdepth}{1}
\setcounter{@pps}{1}
\setcounter{@ppsavesec}{5}
\setcounter{@ppsaveapp}{0}
\setcounter{ALG@line}{29}
\setcounter{ALG@rem}{0}
\setcounter{ALG@nested}{0}
\setcounter{ALG@Lnr}{2}
\setcounter{ALG@blocknr}{10}
\setcounter{ALG@storecount}{0}
\setcounter{ALG@tmpcounter}{0}
\setcounter{float@type}{16}
\setcounter{algorithm}{2}
\setcounter{lstnumber}{80}
\setcounter{theorem}{43}
\setcounter{section@level}{0}
\setcounter{lstlisting}{0}
}
