\relax 
\providecommand\hyper@newdestlabel[2]{}
\citation{Rosen1}
\citation{Stichtenoth1}
\citation{Fesenko1}
\citation{Dummit1}
\@writefile{toc}{\contentsline {chapter}{\numberline {2}Fundamentals of Function Field Theory}{9}{chapter.2}}
\@writefile{lof}{\addvspace {10\p@ }}
\@writefile{lot}{\addvspace {10\p@ }}
\newlabel{ch:functionfields}{{2}{9}{Fundamentals of Function Field Theory}{chapter.2}{}}
\@writefile{toc}{\contentsline {section}{\numberline {2.1}Valuation Rings}{9}{section.2.1}}
\newlabel{def:valuation}{{8}{9}{}{theorem.8}{}}
\newlabel{eq:val1}{{2.1}{9}{}{equation.2.1.1}{}}
\newlabel{ex:valuation}{{10}{10}{}{theorem.10}{}}
\newlabel{ex:padic}{{2}{10}{}{Item.8}{}}
\newlabel{ex:infval}{{3}{10}{}{Item.9}{}}
\newlabel{thm:valvalring}{{12}{10}{}{theorem.12}{}}
\citation{Stichtenoth1}
\@writefile{toc}{\contentsline {section}{\numberline {2.2}Function Fields, Places and Divisors}{11}{section.2.2}}
\citation{Stichtenoth1}
\citation{Stichtenoth1}
\newlabel{ex:rationalff}{{20}{12}{}{theorem.20}{}}
\citation{Stichtenoth1}
\@writefile{lot}{\contentsline {table}{\numberline {2.1}{\ignorespaces The valuations for $f=(x^5+3x^4+6x^2+8x)/(x^4+6x^3+7x^2+8)$.\relax }}{13}{table.caption.3}}
\newlabel{tab:ordex}{{2.1}{13}{The valuations for $f=(x^5+3x^4+6x^2+8x)/(x^4+6x^3+7x^2+8)$.\relax }{table.caption.3}{}}
\newlabel{def:principaldivisor}{{23}{14}{}{theorem.23}{}}
\newlabel{eq:principaldivisor}{{2.4}{14}{}{equation.2.2.4}{}}
\newlabel{ex:principaldivisor}{{24}{14}{}{theorem.24}{}}
\citation{Stichtenoth1}
\citation{Stichtenoth1}
\citation{Stichtenoth1}
\newlabel{lem:dimensions}{{30}{15}{}{theorem.30}{}}
\citation{Rosen1}
\newlabel{thm:riemannroch}{{33}{16}{Riemann-Roch}{theorem.33}{}}
\newlabel{lem:dimension}{{36}{16}{}{theorem.36}{}}
\@setckpt{chapters/chapter2}{
\setcounter{page}{18}
\setcounter{equation}{4}
\setcounter{enumi}{2}
\setcounter{enumii}{0}
\setcounter{enumiii}{0}
\setcounter{enumiv}{0}
\setcounter{footnote}{0}
\setcounter{mpfootnote}{0}
\setcounter{part}{0}
\setcounter{chapter}{2}
\setcounter{section}{2}
\setcounter{subsection}{0}
\setcounter{subsubsection}{0}
\setcounter{paragraph}{0}
\setcounter{subparagraph}{0}
\setcounter{figure}{0}
\setcounter{table}{1}
\setcounter{DefaultLines}{2}
\setcounter{DefaultDepth}{0}
\setcounter{L@lines}{0}
\setcounter{L@depth}{0}
\setcounter{Item}{20}
\setcounter{Hfootnote}{0}
\setcounter{bookmark@seq@number}{7}
\setcounter{parentequation}{0}
\setcounter{ContinuedFloat}{0}
\setcounter{lofdepth}{1}
\setcounter{lotdepth}{1}
\setcounter{@pps}{0}
\setcounter{@ppsavesec}{0}
\setcounter{@ppsaveapp}{0}
\setcounter{ALG@line}{0}
\setcounter{ALG@rem}{0}
\setcounter{ALG@nested}{0}
\setcounter{ALG@Lnr}{2}
\setcounter{ALG@blocknr}{10}
\setcounter{ALG@storecount}{0}
\setcounter{ALG@tmpcounter}{0}
\setcounter{float@type}{16}
\setcounter{algorithm}{0}
\setcounter{lstnumber}{1}
\setcounter{theorem}{36}
\setcounter{section@level}{0}
\setcounter{lstlisting}{0}
}
