\relax 
\providecommand\hyper@newdestlabel[2]{}
\citation{Magma}
\@writefile{toc}{\contentsline {chapter}{\numberline {4}Implementation}{29}{chapter.4}}
\@writefile{lof}{\addvspace {10\p@ }}
\@writefile{lot}{\addvspace {10\p@ }}
\newlabel{ch:implementation}{{4}{29}{Implementation}{chapter.4}{}}
\@writefile{toc}{\contentsline {section}{\numberline {4.1}Preliminary Considerations}{30}{section.4.1}}
\newlabel{sec:prelim}{{4.1}{30}{Preliminary Considerations}{section.4.1}{}}
\newlabel{lem:cjri}{{43}{30}{}{theorem.43}{}}
\@writefile{toc}{\contentsline {section}{\numberline {4.2}Finding Bijections}{31}{section.4.2}}
\newlabel{sec:findingbij}{{4.2}{31}{Finding Bijections}{section.4.2}{}}
\@writefile{toc}{\contentsline {section}{\numberline {4.3}Computing the $c_{j, r}^{(i)}$}{31}{section.4.3}}
\@writefile{toc}{\contentsline {section}{\numberline {4.4}Construction of the Sequence}{34}{section.4.4}}
\newlabel{sec:implconstruction}{{4.4}{34}{Construction of the Sequence}{section.4.4}{}}
\@writefile{toc}{\contentsline {section}{\numberline {4.5}Computing the Discrepancy}{36}{section.4.5}}
\newlabel{sec:finddiscrepancy}{{4.5}{36}{Computing the Discrepancy}{section.4.5}{}}
\newlabel{alg:lowerdiscbound}{{1}{37}{Finding a lower discrepancy bound \relax }{algorithm.1}{}}
\@writefile{loa}{\contentsline {algorithm}{\numberline {1}{\ignorespaces Finding a lower discrepancy bound \relax }}{37}{algorithm.1}}
\newlabel{step:calcD}{{7}{37}{Finding a lower discrepancy bound \relax }{algorithm.1}{}}
\newlabel{alg:bothdiscbound}{{2}{40}{Finding a lower and upper discrepancy bound \relax }{algorithm.2}{}}
\@writefile{loa}{\contentsline {algorithm}{\numberline {2}{\ignorespaces Finding a lower and upper discrepancy bound \relax }}{40}{algorithm.2}}
\@setckpt{chapters/chapter4}{
\setcounter{page}{41}
\setcounter{equation}{0}
\setcounter{enumi}{4}
\setcounter{enumii}{0}
\setcounter{enumiii}{0}
\setcounter{enumiv}{0}
\setcounter{footnote}{0}
\setcounter{mpfootnote}{0}
\setcounter{part}{0}
\setcounter{chapter}{4}
\setcounter{section}{5}
\setcounter{subsection}{0}
\setcounter{subsubsection}{0}
\setcounter{paragraph}{0}
\setcounter{subparagraph}{0}
\setcounter{figure}{0}
\setcounter{table}{0}
\setcounter{DefaultLines}{2}
\setcounter{DefaultDepth}{0}
\setcounter{L@lines}{0}
\setcounter{L@depth}{0}
\setcounter{Item}{24}
\setcounter{Hfootnote}{0}
\setcounter{bookmark@seq@number}{17}
\setcounter{parentequation}{0}
\setcounter{ContinuedFloat}{0}
\setcounter{lofdepth}{1}
\setcounter{lotdepth}{1}
\setcounter{@pps}{0}
\setcounter{@ppsavesec}{0}
\setcounter{@ppsaveapp}{0}
\setcounter{ALG@line}{29}
\setcounter{ALG@rem}{0}
\setcounter{ALG@nested}{0}
\setcounter{ALG@Lnr}{2}
\setcounter{ALG@blocknr}{10}
\setcounter{ALG@storecount}{0}
\setcounter{ALG@tmpcounter}{0}
\setcounter{float@type}{16}
\setcounter{algorithm}{2}
\setcounter{lstnumber}{18}
\setcounter{theorem}{43}
\setcounter{section@level}{0}
\setcounter{lstlisting}{0}
}
