\relax 
\providecommand\hyper@newdestlabel[2]{}
\@writefile{toc}{\contentsline {chapter}{\numberline {5}Results}{41}{chapter.5}}
\@writefile{lof}{\addvspace {10\p@ }}
\@writefile{lot}{\addvspace {10\p@ }}
\newlabel{ch:results}{{5}{41}{Results}{chapter.5}{}}
\@writefile{toc}{\contentsline {section}{\numberline {5.1}Different Fields}{43}{section.5.1}}
\@writefile{lot}{\contentsline {table}{\numberline {5.1}{\ignorespaces The mean of the discrepancy lower bounds $l$ and upper bounds $u$ along with their standard deviation for sets of $10000$ points, generated by a variety of function fields $K/\mathbb  {F}_q$ of different degree and genus, using $j_\text  {max} = 10$.\relax }}{44}{table.caption.11}}
\newlabel{tab:DiscMean}{{5.1}{44}{The mean of the discrepancy lower bounds $l$ and upper bounds $u$ along with their standard deviation for sets of $10000$ points, generated by a variety of function fields $K/\mathbb {F}_q$ of different degree and genus, using $j_\text {max} = 10$.\relax }{table.caption.11}{}}
\@writefile{lot}{\contentsline {table}{\numberline {5.2}{\ignorespaces The mean discrepancy bounds $l$ and $u$ of sets of $10000$ points generated by pseudo-random generators.\relax }}{45}{table.caption.12}}
\newlabel{tab:pseudorandom}{{5.2}{45}{The mean discrepancy bounds $l$ and $u$ of sets of $10000$ points generated by pseudo-random generators.\relax }{table.caption.12}{}}
\@writefile{toc}{\contentsline {section}{\numberline {5.2}Pseudo-Random Point Sets}{45}{section.5.2}}
\@writefile{toc}{\contentsline {section}{\numberline {5.3}Effect of the Bijections}{45}{section.5.3}}
\@writefile{lof}{\contentsline {figure}{\numberline {5.1}{\ignorespaces The first $500$, $1000$, $3000$, and $10000$ points of a pseudo-random point sequence (left) and a low-discrepancy sequence (right).\relax }}{46}{figure.caption.13}}
\newlabel{fig:firstpoints}{{5.1}{46}{The first $500$, $1000$, $3000$, and $10000$ points of a pseudo-random point sequence (left) and a low-discrepancy sequence (right).\relax }{figure.caption.13}{}}
\@writefile{lot}{\contentsline {table}{\numberline {5.3}{\ignorespaces Mean lower and upper discrepancy bounds $l$ and $u$ for sets of $10000$ points generated by randomly chosen, different bijections as well as bounds $l_k$, $u_k$ for the same bijections chosen for any $i, j, r$. All point sets were constructed by means of function fields over $\mathbb  {F}_5$ of degree $2$.\relax }}{47}{table.caption.14}}
\newlabel{tab:bieffect}{{5.3}{47}{Mean lower and upper discrepancy bounds $l$ and $u$ for sets of $10000$ points generated by randomly chosen, different bijections as well as bounds $l_k$, $u_k$ for the same bijections chosen for any $i, j, r$. All point sets were constructed by means of function fields over $\mathbb {F}_5$ of degree $2$.\relax }{table.caption.14}{}}
\@writefile{toc}{\contentsline {section}{\numberline {5.4}Computation Time}{47}{section.5.4}}
\@writefile{lot}{\contentsline {table}{\numberline {5.4}{\ignorespaces Mean time (in seconds) needed to compute two-dimensional points using function fields over $\mathbb  {F}_5$ of degree $2$ and genus $2$.\relax }}{49}{table.caption.15}}
\newlabel{tab:time5-2-2}{{5.4}{49}{Mean time (in seconds) needed to compute two-dimensional points using function fields over $\mathbb {F}_5$ of degree $2$ and genus $2$.\relax }{table.caption.15}{}}
\@writefile{lot}{\contentsline {table}{\numberline {5.5}{\ignorespaces Mean time (in seconds) needed to compute single-dimensional points using function fields over $\mathbb  {F}_4$ of degree $2$ and genus $3$.\relax }}{49}{table.caption.16}}
\newlabel{tab:time4-2-3}{{5.5}{49}{Mean time (in seconds) needed to compute single-dimensional points using function fields over $\mathbb {F}_4$ of degree $2$ and genus $3$.\relax }{table.caption.16}{}}
\@writefile{lot}{\contentsline {table}{\numberline {5.6}{\ignorespaces Mean computation time (in seconds) for different sets of $1000$ points with varying dimension. The underlying function field has genus $3$, degree $2$ and constant field $\mathbb  {F}_4$. Here $j_\text  {max} = 20$ is used.\relax }}{49}{table.caption.18}}
\newlabel{tab:imodtime}{{5.6}{49}{Mean computation time (in seconds) for different sets of $1000$ points with varying dimension. The underlying function field has genus $3$, degree $2$ and constant field $\mathbb {F}_4$. Here $j_\text {max} = 20$ is used.\relax }{table.caption.18}{}}
\@writefile{lof}{\contentsline {figure}{\numberline {5.2}{\ignorespaces Mean time (in seconds) needed to generate sets of $100,~200,\ldots  ,~30000$ points using function fields over $\mathbb  {F}_5$ (blue) plotted against a linear dependency (green). The ``jumps'' in the blue line are exactly where $r_\text  {max}$ had to be increased (at $n_\text  {max} = 5^4,~5^5,~5^6$).\relax }}{50}{figure.caption.17}}
\newlabel{fig:nmodtime}{{5.2}{50}{Mean time (in seconds) needed to generate sets of $100,~200,\ldots ,~30000$ points using function fields over $\mathbb {F}_5$ (blue) plotted against a linear dependency (green). The ``jumps'' in the blue line are exactly where $r_\text {max}$ had to be increased (at $n_\text {max} = 5^4,~5^5,~5^6$).\relax }{figure.caption.17}{}}
\@writefile{lof}{\contentsline {figure}{\numberline {5.3}{\ignorespaces Mean computation time (in seconds) for $540$ different sets of $1000$ one-dimensional points each with varying $j_\text  {max}$. Underlying function fields have genus $3$, degree $2$ and constant field $\mathbb  {F}_4$. On the right the mean computation time is plotted against $j_\text  {max}/10$.\relax }}{51}{figure.caption.19}}
\newlabel{fig:jmodtime}{{5.3}{51}{Mean computation time (in seconds) for $540$ different sets of $1000$ one-dimensional points each with varying $j_\text {max}$. Underlying function fields have genus $3$, degree $2$ and constant field $\mathbb {F}_4$. On the right the mean computation time is plotted against $j_\text {max}/10$.\relax }{figure.caption.19}{}}
\@writefile{toc}{\contentsline {section}{\numberline {5.5}Numerical Examples}{51}{section.5.5}}
\@writefile{lot}{\contentsline {table}{\numberline {5.7}{\ignorespaces Error of the Monte Carlo integration of $0.3sin(10xy)$ in the unit square using low-discrepancy sets and pseudo-random number sets.  \vspace  {2em}\relax }}{52}{table.caption.20}}
\newlabel{tab:MC1}{{5.7}{52}{Error of the Monte Carlo integration of $0.3sin(10xy)$ in the unit square using low-discrepancy sets and pseudo-random number sets.\\ \vspace {2em}\relax }{table.caption.20}{}}
\@writefile{lot}{\contentsline {table}{\numberline {5.8}{\ignorespaces Error of the Monte Carlo integration of $0.3exp(x)sin(3x)-cos(2y-1)$ in the unit square using low-discrepancy sets and pseudo-random number sets.  \vspace  {2em}\relax }}{52}{table.caption.20}}
\newlabel{tab:MC2}{{5.8}{52}{Error of the Monte Carlo integration of $0.3exp(x)sin(3x)-cos(2y-1)$ in the unit square using low-discrepancy sets and pseudo-random number sets.\\ \vspace {2em}\relax }{table.caption.20}{}}
\@writefile{lot}{\contentsline {table}{\numberline {5.9}{\ignorespaces Error of the Monte Carlo integration of $y/cos(x)$ in the unit square using low-discrepancy sets and pseudo-random number sets.\relax }}{52}{table.caption.20}}
\newlabel{tab:MC3}{{5.9}{52}{Error of the Monte Carlo integration of $y/cos(x)$ in the unit square using low-discrepancy sets and pseudo-random number sets.\relax }{table.caption.20}{}}
\@setckpt{chapters/chapter5}{
\setcounter{page}{53}
\setcounter{equation}{0}
\setcounter{enumi}{4}
\setcounter{enumii}{0}
\setcounter{enumiii}{0}
\setcounter{enumiv}{0}
\setcounter{footnote}{0}
\setcounter{mpfootnote}{0}
\setcounter{part}{0}
\setcounter{chapter}{5}
\setcounter{section}{5}
\setcounter{subsection}{0}
\setcounter{subsubsection}{0}
\setcounter{paragraph}{0}
\setcounter{subparagraph}{0}
\setcounter{figure}{3}
\setcounter{table}{9}
\setcounter{DefaultLines}{2}
\setcounter{DefaultDepth}{0}
\setcounter{L@lines}{0}
\setcounter{L@depth}{0}
\setcounter{Item}{24}
\setcounter{Hfootnote}{0}
\setcounter{bookmark@seq@number}{23}
\setcounter{parentequation}{0}
\setcounter{ContinuedFloat}{0}
\setcounter{lofdepth}{1}
\setcounter{lotdepth}{1}
\setcounter{@pps}{0}
\setcounter{@ppsavesec}{0}
\setcounter{@ppsaveapp}{0}
\setcounter{ALG@line}{29}
\setcounter{ALG@rem}{0}
\setcounter{ALG@nested}{0}
\setcounter{ALG@Lnr}{2}
\setcounter{ALG@blocknr}{10}
\setcounter{ALG@storecount}{0}
\setcounter{ALG@tmpcounter}{0}
\setcounter{float@type}{16}
\setcounter{algorithm}{2}
\setcounter{lstnumber}{52}
\setcounter{theorem}{43}
\setcounter{section@level}{0}
\setcounter{lstlisting}{0}
}
