\relax 
\providecommand\hyper@newdestlabel[2]{}
\citation{Niederreiter1}
\citation{Niederreiter2}
\citation{Niederreiter2}
\citation{Niederreiter1}
\citation{Niederreiter2}
\@writefile{toc}{\contentsline {chapter}{\numberline {3}Construction of Low-Discrepancy Sequences by Means of Function Fields}{19}{chapter.3}}
\@writefile{lof}{\addvspace {10\p@ }}
\@writefile{lot}{\addvspace {10\p@ }}
\newlabel{ch:construction}{{3}{19}{Construction of Low-Discrepancy Sequences by Means of Function Fields}{chapter.3}{}}
\@writefile{toc}{\contentsline {section}{\numberline {3.1}General Construction}{19}{section.3.1}}
\newlabel{sec:construction}{{3.1}{19}{General Construction}{section.3.1}{}}
\newlabel{it:psi}{{2}{19}{General Construction}{Item.22}{}}
\citation{Niederreiter1}
\citation{Niederreiter2}
\citation{Niederreiter1}
\newlabel{it:eta}{{3}{20}{General Construction}{Item.23}{}}
\newlabel{it:cjri}{{4}{20}{General Construction}{Item.24}{}}
\newlabel{eq:consy}{{3.1}{20}{General Construction}{equation.3.1.1}{}}
\newlabel{eq:consx}{{3.2}{20}{General Construction}{equation.3.1.2}{}}
\newlabel{eq:sequence}{{3.3}{20}{General Construction}{equation.3.1.3}{}}
\@writefile{toc}{\contentsline {section}{\numberline {3.2}The Case $R = \mathbb  {F}_q$}{20}{section.3.2}}
\citation{Niederreiter2}
\newlabel{lem:isstsequence}{{38}{21}{}{theorem.38}{}}
\@writefile{toc}{\contentsline {section}{\numberline {3.3}Finding $c_{j, r}^{(i)}$ Using Function Fields}{21}{section.3.3}}
\newlabel{sec:findingc}{{3.3}{21}{Finding $c_{j, r}^{(i)}$ Using Function Fields}{section.3.3}{}}
\newlabel{lem:findk}{{39}{21}{}{theorem.39}{}}
\citation{Niederreiter2}
\newlabel{eq:kji}{{3.4}{22}{Finding $c_{j, r}^{(i)}$ Using Function Fields}{equation.3.3.4}{}}
\citation{Niederreiter2}
\citation{Niederreiter2}
\@writefile{lot}{\contentsline {table}{\numberline {3.1}{\ignorespaces The specified bijections $\psi _r : B \rightarrow \mathbb  {F}_7$.\relax }}{23}{table.caption.4}}
\newlabel{tab:psi}{{3.1}{23}{The specified bijections $\psi _r : B \rightarrow \mathbb {F}_7$.\relax }{table.caption.4}{}}
\@writefile{lot}{\contentsline {table}{\numberline {3.2}{\ignorespaces The specified bijections $\eta _j^{(i)} : \mathbb  {F}_7 \rightarrow B$.\relax }}{24}{table.caption.5}}
\newlabel{tab:eta}{{3.2}{24}{The specified bijections $\eta _j^{(i)} : \mathbb {F}_7 \rightarrow B$.\relax }{table.caption.5}{}}
\@writefile{lot}{\contentsline {table}{\numberline {3.3}{\ignorespaces The elements $k_j^{(i)}$ with $\ord  _{P_i} k_j^{(i)} = -\ord  _{P_i} D - j = - j$.\relax }}{24}{table.caption.6}}
\newlabel{tab:kij}{{3.3}{24}{The elements $k_j^{(i)}$ with $\ord _{P_i} k_j^{(i)} = -\ord _{P_i} D - j = - j$.\relax }{table.caption.6}{}}
\@writefile{lot}{\contentsline {table}{\numberline {3.4}{\ignorespaces The elements $b_j^{(i)} \coloneqq (b_{j, 0}^{(i)}, \ldots  , b_{j, 3}^{(i)})$.\relax }}{24}{table.caption.7}}
\newlabel{tab:bijr}{{3.4}{24}{The elements $b_j^{(i)} \coloneqq (b_{j, 0}^{(i)}, \ldots , b_{j, 3}^{(i)})$.\relax }{table.caption.7}{}}
\@writefile{lot}{\contentsline {table}{\numberline {3.5}{\ignorespaces The elements $c_j^{(i)} \coloneqq (c_{j, 0}^{(i)}, \ldots  , c_{j, 2}^{(i)})$.\relax }}{25}{table.caption.8}}
\newlabel{tab:cijr}{{3.5}{25}{The elements $c_j^{(i)} \coloneqq (c_{j, 0}^{(i)}, \ldots , c_{j, 2}^{(i)})$.\relax }{table.caption.8}{}}
\@writefile{lot}{\contentsline {table}{\numberline {3.6}{\ignorespaces Generated points, specified up to $7^{-3}$.\relax }}{26}{table.caption.9}}
\newlabel{tab:x}{{3.6}{26}{Generated points, specified up to $7^{-3}$.\relax }{table.caption.9}{}}
\@writefile{lof}{\contentsline {figure}{\numberline {3.1}{\ignorespaces $1000$ points, automatically generated by the implementation in Chapter \ref  {ch:implementation}.\relax }}{27}{figure.caption.10}}
\newlabel{fig:1000points}{{3.1}{27}{$1000$ points, automatically generated by the implementation in Chapter \ref {ch:implementation}.\relax }{figure.caption.10}{}}
\@setckpt{chapters/chapter3}{
\setcounter{page}{28}
\setcounter{equation}{4}
\setcounter{enumi}{4}
\setcounter{enumii}{0}
\setcounter{enumiii}{0}
\setcounter{enumiv}{0}
\setcounter{footnote}{0}
\setcounter{mpfootnote}{0}
\setcounter{part}{0}
\setcounter{chapter}{3}
\setcounter{section}{3}
\setcounter{subsection}{0}
\setcounter{subsubsection}{0}
\setcounter{paragraph}{0}
\setcounter{subparagraph}{0}
\setcounter{figure}{1}
\setcounter{table}{6}
\setcounter{DefaultLines}{2}
\setcounter{DefaultDepth}{0}
\setcounter{L@lines}{0}
\setcounter{L@depth}{0}
\setcounter{Item}{24}
\setcounter{Hfootnote}{0}
\setcounter{bookmark@seq@number}{11}
\setcounter{parentequation}{0}
\setcounter{ContinuedFloat}{0}
\setcounter{lofdepth}{1}
\setcounter{lotdepth}{1}
\setcounter{@pps}{0}
\setcounter{@ppsavesec}{0}
\setcounter{@ppsaveapp}{0}
\setcounter{ALG@line}{0}
\setcounter{ALG@rem}{0}
\setcounter{ALG@nested}{0}
\setcounter{ALG@Lnr}{2}
\setcounter{ALG@blocknr}{10}
\setcounter{ALG@storecount}{0}
\setcounter{ALG@tmpcounter}{0}
\setcounter{float@type}{16}
\setcounter{algorithm}{0}
\setcounter{lstnumber}{1}
\setcounter{theorem}{42}
\setcounter{section@level}{0}
\setcounter{lstlisting}{0}
}
