\relax 
\providecommand\hyper@newdestlabel[2]{}
\citation{Niederreiter1}
\citation{Niederreiter2}
\@writefile{toc}{\contentsline {chapter}{\numberline {1}Low Discrepancy Sequences}{3}{chapter.1}}
\@writefile{lof}{\addvspace {10\p@ }}
\@writefile{lot}{\addvspace {10\p@ }}
\newlabel{ch:lds}{{1}{3}{Low Discrepancy Sequences}{chapter.1}{}}
\@writefile{toc}{\contentsline {section}{\numberline {1.1}Discrepancy}{3}{section.1.1}}
\newlabel{def:discrepancy}{{1}{3}{}{theorem.1}{}}
\newlabel{exactdiscrepancy}{{3}{4}{}{theorem.3}{}}
\@writefile{lof}{\contentsline {figure}{\numberline {1.1}{\ignorespaces This uniformly distributed point set in $I^2$ has discrepancy $3.75$.\relax }}{5}{figure.caption.2}}
\providecommand*\caption@xref[2]{\@setref\relax\@undefined{#1}}
\newlabel{fig:uniform16Pts}{{1.1}{5}{This uniformly distributed point set in $I^2$ has discrepancy $3.75$.\relax }{figure.caption.2}{}}
\@writefile{lof}{\contentsline {figure}{\numberline {1.2}{\ignorespaces The points of this set lie only in the lower half of the unit square, hence the higher discrepancy of $9.875$.\relax }}{5}{figure.caption.2}}
\newlabel{fig:halfuniform16Pts}{{1.2}{5}{The points of this set lie only in the lower half of the unit square, hence the higher discrepancy of $9.875$.\relax }{figure.caption.2}{}}
\citation{Niederreiter1}
\@writefile{toc}{\contentsline {section}{\numberline {1.2}$(t, s)$-Sequences}{6}{section.1.2}}
\@setckpt{chapters/chapter1}{
\setcounter{page}{8}
\setcounter{equation}{0}
\setcounter{enumi}{2}
\setcounter{enumii}{0}
\setcounter{enumiii}{0}
\setcounter{enumiv}{0}
\setcounter{footnote}{0}
\setcounter{mpfootnote}{0}
\setcounter{part}{0}
\setcounter{chapter}{1}
\setcounter{section}{2}
\setcounter{subsection}{0}
\setcounter{subsubsection}{0}
\setcounter{paragraph}{0}
\setcounter{subparagraph}{0}
\setcounter{figure}{2}
\setcounter{table}{0}
\setcounter{DefaultLines}{2}
\setcounter{DefaultDepth}{0}
\setcounter{L@lines}{0}
\setcounter{L@depth}{0}
\setcounter{Item}{6}
\setcounter{Hfootnote}{0}
\setcounter{bookmark@seq@number}{4}
\setcounter{parentequation}{0}
\setcounter{ContinuedFloat}{0}
\setcounter{lofdepth}{1}
\setcounter{lotdepth}{1}
\setcounter{@pps}{0}
\setcounter{@ppsavesec}{0}
\setcounter{@ppsaveapp}{0}
\setcounter{ALG@line}{0}
\setcounter{ALG@rem}{0}
\setcounter{ALG@nested}{0}
\setcounter{ALG@Lnr}{2}
\setcounter{ALG@blocknr}{10}
\setcounter{ALG@storecount}{0}
\setcounter{ALG@tmpcounter}{0}
\setcounter{float@type}{16}
\setcounter{algorithm}{0}
\setcounter{lstnumber}{1}
\setcounter{theorem}{7}
\setcounter{section@level}{0}
\setcounter{lstlisting}{0}
}
