\relax 
\providecommand\hyper@newdestlabel[2]{}
\citation{Caflisch1}
\citation{Press1}
\citation{Niederreiter1}
\@writefile{toc}{\contentsline {chapter}{\numberline {0}Introduction}{1}{chapter.0}}
\@writefile{lof}{\addvspace {10\p@ }}
\@writefile{lot}{\addvspace {10\p@ }}
\newlabel{introduction}{{0}{1}{Introduction}{chapter.0}{}}
\@setckpt{chapters/introduction}{
\setcounter{page}{3}
\setcounter{equation}{0}
\setcounter{enumi}{0}
\setcounter{enumii}{0}
\setcounter{enumiii}{0}
\setcounter{enumiv}{0}
\setcounter{footnote}{0}
\setcounter{mpfootnote}{0}
\setcounter{part}{0}
\setcounter{chapter}{0}
\setcounter{section}{0}
\setcounter{subsection}{0}
\setcounter{subsubsection}{0}
\setcounter{paragraph}{0}
\setcounter{subparagraph}{0}
\setcounter{figure}{0}
\setcounter{table}{0}
\setcounter{DefaultLines}{2}
\setcounter{DefaultDepth}{0}
\setcounter{L@lines}{0}
\setcounter{L@depth}{0}
\setcounter{Item}{0}
\setcounter{Hfootnote}{0}
\setcounter{bookmark@seq@number}{1}
\setcounter{parentequation}{0}
\setcounter{ContinuedFloat}{0}
\setcounter{lofdepth}{1}
\setcounter{lotdepth}{1}
\setcounter{@pps}{0}
\setcounter{@ppsavesec}{0}
\setcounter{@ppsaveapp}{0}
\setcounter{ALG@line}{0}
\setcounter{ALG@rem}{0}
\setcounter{ALG@nested}{0}
\setcounter{ALG@Lnr}{2}
\setcounter{ALG@blocknr}{10}
\setcounter{ALG@storecount}{0}
\setcounter{ALG@tmpcounter}{0}
\setcounter{float@type}{16}
\setcounter{algorithm}{0}
\setcounter{lstnumber}{1}
\setcounter{theorem}{0}
\setcounter{section@level}{0}
\setcounter{lstlisting}{0}
}
